{
  "1": {
    "template": "radio",
    "text": "Which player scored the fastest hat-trick in the Premier League?",
    "max_request": 5,
    "answer_options": {
      "0": {
        "name": "Paul pobga",
        "correct": false
      },
      "1": {
        "name": "Christiano Ronaldo Christiano Ronaldo Christiano Ronaldo Christiano Ronaldo Christiano Ronaldo",
        "correct": false
      },
      "2": {
        "name": "Alexis",
        "correct": false
      },
      "3": {
        "name": "Sadio Mane",
        "correct": true
      }
    }
  },
  "2": {
    "template": "radio",
    "text": "Who is Manchester United's all-time leading scorer and the only player to have scored 250 goals for the Reds 02.",
    "max_request": 5,
    "answer_options": {
      "0": {
        "name": "Paul pobga",
        "correct": false
      },
      "1": {
        "name": "Rashford marcus",
        "correct": false
      },
      "2": {
        "name": "Alexis",
        "correct": true
      },
      "3": {
        "name": "Igalo chukwu",
        "correct": true
      }
    }
  }
}